-------------------------------------------------------------------------------
Test set: com.kewtea.RegistryApplicationTests
-------------------------------------------------------------------------------
Tests run: 1, Failures: 0, Errors: 0, Skipped: 0, Time elapsed: 27.244 sec - in com.kewtea.RegistryApplicationTests
